…
From the IPEDS website, we find that [engineering codes start
with 14](https://nces.ed.gov/ipeds/cipcode/cipdetail.aspx?y=55&cipid=88196).
We filter `midfielddegrees` using `str_start()` to keep the rows of
students graduating in an engineering major.

``` r
grad_engr <- midfielddegrees %>% 
    filter(str_starts(cip6, "14"))
    
grad_engr %>% 
        select(cip6)  %>% 
        arrange(cip6) %>% 
        distinct()  
#> # A tibble: 27 x 1
#>    cip6  
#>    <chr> 
#>  1 140101
#>  2 140201
#>  3 140301
#>  4 140401
#>  5 140501
#>  6 140601
#>  7 140701
#>  8 140801
#>  9 140901
#> 10 141001
#> # ... with 17 more rows
```
…
