…
This code chunk only has to be run one time. If you paste in your R
script, comment it out after running it once.

If you have any issues, you can download the CSV file manually from the
WHO data site. Look for the link labeled [Download case
notifications](http://www.who.int/tb/country/data/download/en/).

**First look at the data**

``` r
# read the CSV file 
who <- read.csv("data-raw/TB-notifications.csv") %>% 
        as_tibble() %>% 
        print()
#> # A tibble: 8,070 x 163
#>    country iso2  iso3  iso_numeric g_whoregion  year new_sp new_sn new_su
#>    <fct>   <fct> <fct>       <int> <fct>       <int>  <int>  <int>  <int>
#>  1 Afghan~ AF    AFG             4 EMR          1980     NA     NA     NA
#>  2 Afghan~ AF    AFG             4 EMR          1981     NA     NA     NA
#>  3 Afghan~ AF    AFG             4 EMR          1982     NA     NA     NA
#>  4 Afghan~ AF    AFG             4 EMR          1983     NA     NA     NA
#>  5 Afghan~ AF    AFG             4 EMR          1984     NA     NA     NA
#>  6 Afghan~ AF    AFG             4 EMR          1985     NA     NA     NA
#>  7 Afghan~ AF    AFG             4 EMR          1986     NA     NA     NA
#>  8 Afghan~ AF    AFG             4 EMR          1987     NA     NA     NA
#>  9 Afghan~ AF    AFG             4 EMR          1988     NA     NA     NA
#> 10 Afghan~ AF    AFG             4 EMR          1989     NA     NA     NA
#> # ... with 8,060 more rows, and 154 more variables: new_ep <int>,
#> #   new_oth <int>, ret_rel <int>, ret_taf <int>, ret_tad <int>,
#> #   ret_oth <int>, newret_oth <int>, new_labconf <int>, new_clindx <int>,
#> #   ret_rel_labconf <int>, ret_rel_clindx <int>, ret_rel_ep <int>,
#> #   ret_nrel <int>, notif_foreign <int>, c_newinc <int>, new_sp_m04 <int>,
#> #   new_sp_m514 <int>, new_sp_m014 <int>, new_sp_m1524 <int>,
#> #   new_sp_m2534 <int>, new_sp_m3544 <int>, new_sp_m4554 <int>,
#> #   new_sp_m5564 <int>, new_sp_m65 <int>, new_sp_mu <int>,
#> #   new_sp_f04 <int>, new_sp_f514 <int>, new_sp_f014 <int>,
…
