…
# example 
table[30]
#> [1] "New Hampshire;1109252;1112384;1109929;1117784;1129458;1142560;1157561;1174719;1189425;1205940;1222014;1235786"
```

Now the table can be made into a tibble,

``` r
table <- tibble::enframe(table, name = NULL, value = "state")



table
#> # A tibble: 40 x 1
#>    state                                                                   
#>    <chr>                                                                   
#>  1 Alabama;4040389;4050055;4099156;4154014;4214202;4260229;4296800;4331102~
#>  2 Alaska;550043;553290;570193;588736;599432;603308;604412;608569;612968;6~
#>  3 Arizona;3665339;3684097;3788576;3915740;4065440;4245089;4432499;4586940~
#>  4 Arkansas;2350624;2356586;2383144;2415984;2456303;2494019;2535399;257210~
#>  5 California;29811427;29959515;30470736;30974659;31274928;31484435;316965~
#>  6 Colorado;3294473;3307618;3387119;3495939;3613734;3724168;3826653;391997~
#>  7 Connecticut;3287116;3291967;3302895;3300712;3309175;3316121;3324144;333~
#>  8 Delaware;666168;669567;683080;694925;706378;717545;729734;740977;751487~
#>  9 District of Columbia;606900;605321;600870;597565;595301;589239;580517;5~
#> 10 Florida;12938071;13033307;13369798;13650553;13927185;14239444;14537875;~
#> # ... with 30 more rows
```

Separate into columns

``` r
table <- table %>% 
        separate(col = "state", 
                into = c("state", "base", seq(1990, 1999), "census"), 
                sep = ";")



table
#> # A tibble: 40 x 13
#>    state base  `1990` `1991` `1992` `1993` `1994` `1995` `1996` `1997`
#>    <chr> <chr> <chr>  <chr>  <chr>  <chr>  <chr>  <chr>  <chr>  <chr> 
#>  1 Alab~ 4040~ 40500~ 40991~ 41540~ 42142~ 42602~ 42968~ 43311~ 43679~
#>  2 Alas~ 5500~ 553290 570193 588736 599432 603308 604412 608569 612968
#>  3 Ariz~ 3665~ 36840~ 37885~ 39157~ 40654~ 42450~ 44324~ 45869~ 47369~
#>  4 Arka~ 2350~ 23565~ 23831~ 24159~ 24563~ 24940~ 25353~ 25721~ 26010~
#>  5 Cali~ 2981~ 29959~ 30470~ 30974~ 31274~ 31484~ 31696~ 32018~ 32486~
#>  6 Colo~ 3294~ 33076~ 33871~ 34959~ 36137~ 37241~ 38266~ 39199~ 40182~
#>  7 Conn~ 3287~ 32919~ 33028~ 33007~ 33091~ 33161~ 33241~ 33366~ 33493~
#>  8 Dela~ 6661~ 669567 683080 694925 706378 717545 729734 740977 751487
#>  9 Dist~ 6069~ 605321 600870 597565 595301 589239 580517 572377 567736
#> 10 Flor~ 1293~ 13033~ 13369~ 13650~ 13927~ 14239~ 14537~ 14853~ 15186~
#> # ... with 30 more rows, and 3 more variables: `1998` <chr>, `1999` <chr>,
#> #   census <chr>
```
…
Now we can convert the year and population variables to integers.

``` r
df <- df %>% 
        mutate(year = as.integer(year), population = as.integer(population))



df
#> # A tibble: 510 x 3
#>    state    year population
#>    <chr>   <int>      <int>
#>  1 Alabama  1990    4050055
#>  2 Alabama  1991    4099156
#>  3 Alabama  1992    4154014
#>  4 Alabama  1993    4214202
#>  5 Alabama  1994    4260229
#>  6 Alabama  1995    4296800
#>  7 Alabama  1996    4331102
#>  8 Alabama  1997    4367935
#>  9 Alabama  1998    4404701
#> 10 Alabama  1999    4430141
#> # ... with 500 more rows
```
…
