…
R includes the usual set of Boolean operators: AND `&`, OR `|`, XOR
`xor()`, and NOT `!`. If you haven’t encountered the exclusive-or (XOR),
it means:

  - XOR: true only when inputs different, i.e., one is true, the other
    is false
  - \!XOR: true only when both inputs are the same

The following code finds all flights that departed in November or
December:

``` r
data(flights, package = "nycflights13")
filter(flights, month == 11 | month == 12)
#> # A tibble: 55,403 x 19
#>     year month   day dep_time sched_dep_time dep_delay arr_time
#>    <int> <int> <int>    <int>          <int>     <dbl>    <int>
#>  1  2013    11     1        5           2359         6      352
#>  2  2013    11     1       35           2250       105      123
#>  3  2013    11     1      455            500        -5      641
#>  4  2013    11     1      539            545        -6      856
#>  5  2013    11     1      542            545        -3      831
#>  6  2013    11     1      549            600       -11      912
#>  7  2013    11     1      550            600       -10      705
#>  8  2013    11     1      554            600        -6      659
#>  9  2013    11     1      554            600        -6      826
#> 10  2013    11     1      554            600        -6      749
#> # ... with 55,393 more rows, and 12 more variables: sched_arr_time <int>,
#> #   arr_delay <dbl>, carrier <chr>, flight <int>, tailnum <chr>,
#> #   origin <chr>, dest <chr>, air_time <dbl>, distance <dbl>, hour <dbl>,
#> #   minute <dbl>, time_hour <dttm>
```

A useful shorthand is `x %in% y`. This will select every row where x is
one of the values in y. We could use it to rewrite the code above:

``` r
filter(flights, month %in% c(11, 12))
#> # A tibble: 55,403 x 19
#>     year month   day dep_time sched_dep_time dep_delay arr_time
#>    <int> <int> <int>    <int>          <int>     <dbl>    <int>
#>  1  2013    11     1        5           2359         6      352
#>  2  2013    11     1       35           2250       105      123
#>  3  2013    11     1      455            500        -5      641
#>  4  2013    11     1      539            545        -6      856
#>  5  2013    11     1      542            545        -3      831
#>  6  2013    11     1      549            600       -11      912
#>  7  2013    11     1      550            600       -10      705
#>  8  2013    11     1      554            600        -6      659
#>  9  2013    11     1      554            600        -6      826
#> 10  2013    11     1      554            600        -6      749
#> # ... with 55,393 more rows, and 12 more variables: sched_arr_time <int>,
#> #   arr_delay <dbl>, carrier <chr>, flight <int>, tailnum <chr>,
#> #   origin <chr>, dest <chr>, air_time <dbl>, distance <dbl>, hour <dbl>,
#> #   minute <dbl>, time_hour <dttm>
```

`filter()` only includes rows where its condition is TRUE; it excludes
both FALSE and NA values. If you want to preserve missing values, ask
for them explicitly:

``` r
# filter excludes NA values by default
filter(flights, dep_delay > 370)
#> # A tibble: 214 x 19
#>     year month   day dep_time sched_dep_time dep_delay arr_time
#>    <int> <int> <int>    <int>          <int>     <dbl>    <int>
#>  1  2013     1     1      848           1835       853     1001
#>  2  2013     1     1     2343           1724       379      314
#>  3  2013     1     2     2131           1512       379     2340
#>  4  2013     1     9      641            900      1301     1242
#>  5  2013     1    10     1121           1635      1126     1239
#>  6  2013     1    10     1525            900       385     1713
#>  7  2013     1    13     1809            810       599     2054
#>  8  2013     1    16     1622            800       502     1911
#>  9  2013     1    23     1551            753       478     1812
#> 10  2013    10     7     1858           1240       378     2025
#> # ... with 204 more rows, and 12 more variables: sched_arr_time <int>,
#> #   arr_delay <dbl>, carrier <chr>, flight <int>, tailnum <chr>,
#> #   origin <chr>, dest <chr>, air_time <dbl>, distance <dbl>, hour <dbl>,
#> #   minute <dbl>, time_hour <dttm>

# filter includes NA values if you so specify
filter(flights, is.na(dep_delay) | dep_delay > 30)
#> # A tibble: 56,546 x 19
#>     year month   day dep_time sched_dep_time dep_delay arr_time
#>    <int> <int> <int>    <int>          <int>     <dbl>    <int>
#>  1  2013     1     1      732            645        47     1011
#>  2  2013     1     1      749            710        39      939
#>  3  2013     1     1      811            630       101     1047
#>  4  2013     1     1      826            715        71     1136
#>  5  2013     1     1      848           1835       853     1001
#>  6  2013     1     1      903            820        43     1045
#>  7  2013     1     1      909            810        59     1331
#>  8  2013     1     1      953            921        32     1320
#>  9  2013     1     1      957            733       144     1056
#> 10  2013     1     1     1025            951        34     1258
#> # ... with 56,536 more rows, and 12 more variables: sched_arr_time <int>,
#> #   arr_delay <dbl>, carrier <chr>, flight <int>, tailnum <chr>,
#> #   origin <chr>, dest <chr>, air_time <dbl>, distance <dbl>, hour <dbl>,
#> #   minute <dbl>, time_hour <dttm>
```
…
