…
temp
#> # A tibble: 24 x 5
#>    age   region    Black non_Black ratio
#>    <chr> <fct>     <dbl>     <dbl> <dbl>
#>  1 35-39 Northeast 10.9       3.76  2.90
#>  2 30-34 Midwest   12.8       4.55  2.81
#>  3 30-34 Northeast  9.89      3.53  2.80
#>  4 35-39 Midwest   14.2       5.26  2.71
#>  5 25-29 Midwest   12.7       5.03  2.52
#>  6 30-34 South     11.3       4.53  2.49
#>  7 25-29 Northeast 10.2       4.22  2.43
#>  8 35-39 South     12.5       5.31  2.36
#>  9 30-34 West       9.40      4.04  2.33
#> 10 35-39 West      10.0       4.39  2.28
#> # ... with 14 more rows
…
