…
``` r
library("tsbox")

# collect the time series
collected_ts <- ts_c(mdeaths, fdeaths, ldeaths)

# convert to data frame 
df <- ts_df(collected_ts)

# then to a tibble
df <- as_tibble(df)

df
#> # A tibble: 216 x 3
#>    id      time       value
#>    <chr>   <date>     <dbl>
#>  1 mdeaths 1974-01-01  2134
#>  2 mdeaths 1974-02-01  1863
#>  3 mdeaths 1974-03-01  1877
#>  4 mdeaths 1974-04-01  1877
#>  5 mdeaths 1974-05-01  1492
#>  6 mdeaths 1974-06-01  1249
#>  7 mdeaths 1974-07-01  1280
#>  8 mdeaths 1974-08-01  1131
#>  9 mdeaths 1974-09-01  1209
#> 10 mdeaths 1974-10-01  1492
#> # ... with 206 more rows
```
…
