…
or

``` r
print(df)
#> # A tibble: 100 x 5
#>    grade sex    disadvantaged ethnicity score
#>    <int> <fct>  <fct>         <chr>     <int>
#>  1     6 Male   Yes           Hispanic     43
#>  2     7 Male   No            Black        88
#>  3     5 Female Yes           Hispanic     34
#>  4     3 Male   Yes           Hispanic     65
#>  5     8 Male   Yes           White        75
#>  6     5 Male   No            Black        74
#>  7     8 Female Yes           Hispanic     72
#>  8     4 Male   Yes           Black        79
#>  9     6 Male   No            White        88
#> 10     7 Male   Yes           Hispanic     87
#> # ... with 90 more rows
```

Because this data frame is a tibble, only the first few rows are shown.
We can override that behavior with the `n` and `width` arguments.

``` r
print(df, n = 25)
#> # A tibble: 100 x 5
#>    grade sex    disadvantaged ethnicity score
#>    <int> <fct>  <fct>         <chr>     <int>
#>  1     6 Male   Yes           Hispanic     43
#>  2     7 Male   No            Black        88
#>  3     5 Female Yes           Hispanic     34
#>  4     3 Male   Yes           Hispanic     65
#>  5     8 Male   Yes           White        75
#>  6     5 Male   No            Black        74
#>  7     8 Female Yes           Hispanic     72
#>  8     4 Male   Yes           Black        79
#>  9     6 Male   No            White        88
#> 10     7 Male   Yes           Hispanic     87
#> 11     3 Male   No            White        79
#> 12     6 Female No            White        84
#> 13     8 Male   No            White        90
#> 14     5 Male   No            White        73
#> 15     8 Female No            White        72
#> 16     6 Female No            Black        82
#> 17     4 Male   No            White        69
#> 18     3 Female Yes           Hispanic     17
#> 19     3 Male   No            Hispanic     37
#> 20     5 Male   No            White        70
#> 21     6 Male   No            White        90
#> 22     6 Female No            White        91
#> 23     5 Female No            White        50
#> 24     7 Male   No            White        83
#> 25     4 Female Yes           Black        58
#> # ... with 75 more rows
```

The `width` argument is used to set how many columns are printed. For
example, here is the default behavior of printing a tibble with 19
columns.

``` r
print(flights)
#> # A tibble: 336,776 x 19
#>     year month   day dep_time sched_dep_time dep_delay arr_time
#>    <int> <int> <int>    <int>          <int>     <dbl>    <int>
#>  1  2013     1     1      517            515         2      830
#>  2  2013     1     1      533            529         4      850
#>  3  2013     1     1      542            540         2      923
#>  4  2013     1     1      544            545        -1     1004
#>  5  2013     1     1      554            600        -6      812
#>  6  2013     1     1      554            558        -4      740
#>  7  2013     1     1      555            600        -5      913
#>  8  2013     1     1      557            600        -3      709
#>  9  2013     1     1      557            600        -3      838
#> 10  2013     1     1      558            600        -2      753
#> # ... with 336,766 more rows, and 12 more variables: sched_arr_time <int>,
#> #   arr_delay <dbl>, carrier <chr>, flight <int>, tailnum <chr>,
#> #   origin <chr>, dest <chr>, air_time <dbl>, distance <dbl>, hour <dbl>,
#> #   minute <dbl>, time_hour <dttm>
```

We can use the width argument to print all columns.

``` r
print(flights, width = Inf)
#> # A tibble: 336,776 x 19
#>     year month   day dep_time sched_dep_time dep_delay arr_time
#>    <int> <int> <int>    <int>          <int>     <dbl>    <int>
#>  1  2013     1     1      517            515         2      830
#>  2  2013     1     1      533            529         4      850
#>  3  2013     1     1      542            540         2      923
#>  4  2013     1     1      544            545        -1     1004
#>  5  2013     1     1      554            600        -6      812
#>  6  2013     1     1      554            558        -4      740
#>  7  2013     1     1      555            600        -5      913
#>  8  2013     1     1      557            600        -3      709
#>  9  2013     1     1      557            600        -3      838
#> 10  2013     1     1      558            600        -2      753
#>    sched_arr_time arr_delay carrier flight tailnum origin dest  air_time
#>             <int>     <dbl> <chr>    <int> <chr>   <chr>  <chr>    <dbl>
#>  1            819        11 UA        1545 N14228  EWR    IAH        227
#>  2            830        20 UA        1714 N24211  LGA    IAH        227
#>  3            850        33 AA        1141 N619AA  JFK    MIA        160
#>  4           1022       -18 B6         725 N804JB  JFK    BQN        183
#>  5            837       -25 DL         461 N668DN  LGA    ATL        116
#>  6            728        12 UA        1696 N39463  EWR    ORD        150
#>  7            854        19 B6         507 N516JB  EWR    FLL        158
#>  8            723       -14 EV        5708 N829AS  LGA    IAD         53
#>  9            846        -8 B6          79 N593JB  JFK    MCO        140
#> 10            745         8 AA         301 N3ALAA  LGA    ORD        138
#>    distance  hour minute time_hour          
#>       <dbl> <dbl>  <dbl> <dttm>             
#>  1     1400     5     15 2013-01-01 05:00:00
#>  2     1416     5     29 2013-01-01 05:00:00
#>  3     1089     5     40 2013-01-01 05:00:00
#>  4     1576     5     45 2013-01-01 05:00:00
#>  5      762     6      0 2013-01-01 06:00:00
#>  6      719     5     58 2013-01-01 05:00:00
#>  7     1065     6      0 2013-01-01 06:00:00
#>  8      229     6      0 2013-01-01 06:00:00
#>  9      944     6      0 2013-01-01 06:00:00
#> 10      733     6      0 2013-01-01 06:00:00
#> # ... with 336,766 more rows
```
…
## multiway data table

Recall that multiway data consists of a single quantitative variable (or
response) dependent on two independent categorical variables.

Thus multiway data can be reshaped into a table with the levels of one
category as row headings and the levels of the second category as column
headings.

Let’s revisit the `metro_pop` dataset in graphclassmate.

``` r
metro_pop
#> # A tibble: 60 x 3
#>    race   county population
#>    <chr>  <chr>       <dbl>
#>  1 White  Bronx      194000
#>  2 Latino Bronx      645000
#>  3 Black  Bronx      415000
#>  4 Asian  Bronx       38000
#>  5 Others Bronx       40000
#>  6 White  Kings      855000
#>  7 Latino Kings      488000
#>  8 Black  Kings      845000
#>  9 Asian  Kings      184000
#> 10 Others Kings       93000
#> # ... with 50 more rows
```
…
